{
	"type": "PATH",
	"time": "2022-02-16T14:37:59.760000-08:00",
	"seq": 347,
	"item": 0,
	"name": "/usr/sbin/ifconfig",
	"inode": 925926,
	"dev": "08:01",
	"mode": "file,755",
	"ouid": "root",
	"ogid": "root",
	"rdev": 0,
	"nametype": "NORMAL",
	"cap_fp": 0,
	"cap_fi": 0,
	"cap_fe": 0,
	"cap_fver": 0,
	"Hostname": "debian-10-main",
	"EventReceivedTime": "2022-02-16T14:37:59.764419-08:00",
	"SourceModuleName": "LinuxAudit",
	"SourceModuleType": "im_linuxaudit"
}
