{
    // Variables...
    // Variable can be used later
    // system variables:
    // * {cwd} - current working dir
    "defines":
    {
        //"root": "/opt/nxlog-admin-tools"
    },

    "pidfile": "{cwd}/var/nxlog-admin.pid",
    "logfile": "{cwd}/var/nxlog-admin.log",
    "daemon-log": "{cwd}/var/daemon.log",
    "daemon-err-log": "{cwd}/var/daemon-err.log",
    //  Listening ports.
    //  Waiting incomming connections from remote agents
    "listen" :
    [
        {
            "ip": "0.0.0.0",
            "port": 4042,
            "proto": "ssl",
            "ssl_ca": "{cwd}/keys/ca.pem",
            "ssl_cert": "{cwd}/keys/server-cert.pem",
            "ssl_key": "{cwd}/keys/server-key.pem"
        }
    ],
    // control socket
    "sockets":
    [
        {
            "file": "{cwd}/var/nxlog-admin.sock"
        }
    ],
    // pre-defined agents
    // remote agents Waiting connection
    "agents":[
        {
            "description": "remote1",
            "host": "192.168.88.201",
            "port": 8080,
            // proto: tcp|ssl
            "proto": "tcp",
            "ssl_ca": "{cwd}/keys/ca.pem",
            "ssl_cert": "{cwd}/keys/client-cert.pem",
            "ssl_key": "{cwd}/keys/client-key.pem"
        },
        {
            "description": "remote-202",
            "host": "192.168.88.203",
            "port": 4041,
            "proto": "tcp",
            "ssl_ca": "{cwd}/keys/ca.pem",
            "ssl_cert": "{cwd}/keys/client-cert.pem",
            "ssl_key": "{cwd}/keys/client-key.pem"
        }

    ],
    "cert_authority": {
        "ca_root": "{cwd}/ca"
    }

}
